2017-12-28 07:47:30	::1	formula_based installed
2018-06-06 09:36:39	::1	formula_based installed
2018-06-06 09:46:21	::1	ultimate_shipping installed
2018-06-06 09:46:22	::1	ultimate_shipping installed
2018-06-06 09:48:22	::1	formula_based installed
2018-06-08 05:12:50	::1	ultimate_shipping installed
2018-06-08 05:12:51	::1	ultimate_shipping installed
2018-06-08 05:12:52	::1	ultimate_shipping installed
2018-06-08 05:15:59	::1	formula_based installed
2018-06-08 05:33:16	::1	ultimate_shipping installed
2018-07-04 10:29:58	::1	formula_based installed
2018-07-05 06:20:09	::1	ultimate_shipping installed
2018-07-05 06:20:12	::1	ultimate_shipping installed
2018-09-28 05:51:10	::1	formula_based installed
